{"help": "https://ckan0.cf.opendata.inter.prod-toronto.ca/api/3/action/help_show?name=datastore_search", "success": true, "result": {"include_total": true, "resource_id": "b9214fd7-60d1-45f3-8463-a6bd9828f8bf", "fields": [{"type": "int", "id": "_id"}, {"info": {"notes": "", "label": ""}, "type": "int4", "id": "OBJECTID"}, {"info": {"notes": "", "label": ""}, "type": "text", "id": "ID"}, {"info": {"notes": "", "label": ""}, "type": "text", "id": "ADDRESSNUMBERTEXT"}, {"info": {"notes": "", "label": ""}, "type": "text", "id": "ADDRESSSTREET"}, {"info": {"notes": "", "label": ""}, "type": "text", "id": "FRONTINGSTREET"}, {"info": {"notes": "", "label": ""}, "type": "text", "id": "SIDE"}, {"info": {"notes": "", "label": ""}, "type": "text", "id": "FROMSTREET"}, {"info": {"notes": "", "label": ""}, "type": "text", "id": "DIRECTION"}, {"info": {"notes": "", "label": ""}, "type": "text", "id": "SITEID"}, {"info": {"notes": "", "label": ""}, "type": "text", "id": "WARD"}, {"info": {"notes": "", "label": ""}, "type": "text", "id": "BIA"}, {"info": {"notes": "", "label": ""}, "type": "text", "id": "ASSETTYPE"}, {"info": {"notes": "", "label": ""}, "type": "text", "id": "STATUS"}, {"info": {"notes": "", "label": ""}, "type": "text", "id": "STYLE"}, {"info": {"notes": "", "label": ""}, "type": "text", "id": "BARCODE"}, {"info": {"notes": "", "label": ""}, "type": "text", "id": "POSTERBOARD"}, {"info": {"notes": "", "label": ""}, "type": "text", "id": "POSTERBOARDSTATUS"}, {"info": {"notes": "", "label": ""}, "type": "float8", "id": "SDE_STATE_ID"}, {"info": {"notes": "", "label": ""}, "type": "float8", "id": "X"}, {"info": {"notes": "", "label": ""}, "type": "float8", "id": "Y"}, {"info": {"notes": "", "label": ""}, "type": "float8", "id": "LONGITUDE"}, {"info": {"notes": "", "label": ""}, "type": "float8", "id": "LATITUDE"}, {"type": "text", "id": "geometry"}], "records_format": "objects", "records": [{"_id": 386338, "OBJECTID": 14, "ID": "SH-00234", "ADDRESSNUMBERTEXT": "1", "ADDRESSSTREET": "Winter Gardens Trl", "FRONTINGSTREET": "Port Union Rd", "SIDE": null, "FROMSTREET": "Winter Gardens Trl", "DIRECTION": null, "SITEID": null, "WARD": "25", "BIA": null, "ASSETTYPE": "Standard Daytech", "STATUS": "Existing", "STYLE": "Daytech", "BARCODE": null, "POSTERBOARD": "No", "POSTERBOARDSTATUS": null, "SDE_STATE_ID": 0, "X": 333871.668, "Y": 4849535.484, "LONGITUDE": -79.138802715, "LATITUDE": 43.785210447, "geometry": "{\"type\": \"Point\", \"coordinates\": [-79.1388027108006, 43.785210451701744]}"}, {"_id": 386339, "OBJECTID": 16, "ID": "SH-03390", "ADDRESSNUMBERTEXT": "1", "ADDRESSSTREET": "Glen Watford Dr", "FRONTINGSTREET": "Sheppard Ave E", "SIDE": "North", "FROMSTREET": "Glen Watford Dr", "DIRECTION": "East", "SITEID": "T6054", "WARD": "23", "BIA": "Sheppard East Village", "ASSETTYPE": "C", "STATUS": "Existing", "STYLE": "Enseicom", "BARCODE": null, "POSTERBOARD": "No", "POSTERBOARDSTATUS": null, "SDE_STATE_ID": 0, "X": 322847.532, "Y": 4849599.552, "LONGITUDE": -79.275767196, "LATITUDE": 43.786137913, "geometry": "{\"type\": \"Point\", \"coordinates\": [-79.27576719726103, 43.78613791856435]}"}, {"_id": 386340, "OBJECTID": 19, "ID": "SH-01227", "ADDRESSNUMBERTEXT": "7600", "ADDRESSSTREET": "Sheppard Ave E", "FRONTINGSTREET": null, "SIDE": null, "FROMSTREET": "Morningside Ave", "DIRECTION": null, "SITEID": "T9319", "WARD": "25", "BIA": null, "ASSETTYPE": "D", "STATUS": "Temporarily Removed", "STYLE": "Enseicom", "BARCODE": null, "POSTERBOARD": "No", "POSTERBOARDSTATUS": null, "SDE_STATE_ID": 0, "X": 328904.234, "Y": 4851378.308, "LONGITUDE": -79.200436208, "LATITUDE": 43.801976112, "geometry": "{\"type\": \"Point\", \"coordinates\": [-79.20043620713324, 43.80197611119483]}"}], "limit": 3, "_links": {"start": "/api/action/datastore_search?limit=3&resource_id=b9214fd7-60d1-45f3-8463-a6bd9828f8bf", "next": "/api/action/datastore_search?offset=3&limit=3&resource_id=b9214fd7-60d1-45f3-8463-a6bd9828f8bf"}, "total": 5733}}
